{
  "name": "Utils",
  "rootNamespace": "",
  "references": [
    "GUID:e0cd26848372d4e5c891c569017e11f1",
    "GUID:d8b63aba1907145bea998dd612889d6b",
    "GUID:489ab767dc9d2df449f531a19a6f8eb2",
    "GUID:a806b91bdc52e3f41a3dde74e55dee9d"
  ],
  "includePlatforms": [],
  "excludePlatforms": [],
  "allowUnsafeCode": true,
  "overrideReferences": false,
  "precompiledReferences": [],
  "autoReferenced": true,
  "defineConstraints": [],
  "versionDefines": [],
  "noEngineReferences": false
}