%YAML 1.1
%TAG !u! tag:unity3d.com,2011:
--- !u!114 &11400000
MonoBehaviour:
  m_ObjectHideFlags: 0
  m_CorrespondingSourceObject: {fileID: 0}
  m_PrefabInstance: {fileID: 0}
  m_PrefabAsset: {fileID: 0}
  m_GameObject: {fileID: 0}
  m_Enabled: 1
  m_EditorHideFlags: 0
  m_Script: {fileID: 11500000, guid: 3465e3cfa20aae944bf4827b23860bcc, type: 3}
  m_Name: WoodOak
  m_EditorClassIdentifier: 
  GenerateTexture: 1
  Id: 6
  Texture: {fileID: 2800000, guid: b1d4f8cb29c76e047a0da96842d718b4, type: 3}
  Transparent: 0
  UVs: []
